{
  "project_info": {
    "project_number": "312767928544",
    "project_id": "x7kirana",
    "storage_bucket": "x7kirana.appspot.com"
  },
  "client": [
    {
      "client_info": {
        "mobilesdk_app_id": "1:312767928544:android:d96ac970892b4b87fd5885",
        "android_client_info": {
          "package_name": "com.sample.agrofoods"
        }
      },
      "oauth_client": [
        {
          "client_id": "312767928544-bau7ueachqm9e4vs1uhf6g84bo9r32da.apps.googleusercontent.com",
          "client_type": 3
        }
      ],
      "api_key": [
        {
          "current_key": "AIzaSyA4OSaDlhZP5FMvA7voEpHXpfFCMWngXa4"
        }
      ],
      "services": {
        "appinvite_service": {
          "other_platform_oauth_client": [
            {
              "client_id": "312767928544-bau7ueachqm9e4vs1uhf6g84bo9r32da.apps.googleusercontent.com",
              "client_type": 3
            }
          ]
        }
      }
    }
  ],
  "configuration_version": "1"
}